{
  "1": {
    "title": "Win a full away kit!",
    "image": "http://dev-uwin.focallabs.co.uk/images/prizes.jpg",
    "description": "Fringilla eget tortor congue pharetra turpis. Fringilla eget tortor congue pharetra turpis.",
    "quantity": "1",
    "date": "05:00:00 2020-07-17",
    "value": "100",
    "terms": "",
    "tandc": ""
  },
  "2": {
    "title": "£50 Arsenaldirect.com voucher",
    "image": "http://dev-uwin.focallabs.co.uk/images/prizes.jpg",
    "description": "Fringilla eget tortor congue pharetra turpis. Fringilla eget tortor congue pharetra turpis.",
    "quantity": "10",
    "date": "05:00:00 2020-07-17",
    "value": "50",
    "terms": "",
    "tandc": ""
  },
  "3": {
    "title": "Signed Luiz jersey",
    "image": "http://dev-uwin.focallabs.co.uk/images/prizes.jpg",
    "description": "Fringilla eget tortor congue pharetra turpis. Fringilla eget tortor congue pharetra turpis.",
    "quantity": "20",
    "date": "05:00:00 2020-07-17", 
    "value": "30",
    "terms": "",
    "tandc": ""
  }
}